<svg width="76" height="66" viewBox="0 0 76 66" fill="none" xmlns="http://www.w3.org/2000/svg">
<path d="M70.6797 29.8241L68.7116 22.9875C69.2497 22.8883 69.6534 22.4737 69.6534 21.977V20.8748C69.6534 18.4815 67.4113 16.5345 64.6555 16.5345H55.6911V14.2608C55.6911 13.0832 54.5879 12.1251 53.2318 12.1251H7.53647C6.18034 12.1251 5.07716 13.0832 5.07716 14.2608V32.9999C5.07716 33.5706 5.6099 34.0334 6.26718 34.0334C6.92431 34.0334 7.4572 33.5707 7.4572 32.9999V14.2608C7.4572 14.2228 7.49268 14.192 7.53647 14.192H53.2316C53.2754 14.192 53.3109 14.2228 53.3109 14.2608V33.0002C53.3109 33.5709 53.8436 34.0336 54.5009 34.0336C55.158 34.0336 55.6909 33.571 55.6909 33.0002V31.8287H69.7285C69.7297 31.8287 69.7306 31.829 69.7316 31.829C69.7328 31.829 69.7339 31.8288 69.7349 31.8288C71.4623 31.8299 72.929 32.8144 73.4328 34.1712H69.7325C69.0754 34.1712 68.5425 34.6338 68.5425 35.2046V37.4092C68.5425 39.1947 70.2151 40.6472 72.2711 40.6472H73.6198V45.1941H70.5083C69.4861 42.631 66.6805 40.7848 63.3859 40.7848C60.0914 40.7848 57.2856 42.631 56.2636 45.1941H55.6906V37.409C55.6906 36.8384 55.1579 36.3756 54.5006 36.3756C53.8435 36.3756 53.3106 36.8383 53.3106 37.409V45.1938H28.6213C27.5991 42.6308 24.7935 40.7846 21.4989 40.7846C18.2044 40.7846 15.3986 42.6308 14.3766 45.1938H7.53647C7.49268 45.1938 7.4572 45.163 7.4572 45.125V42.8515H12.6138C13.2709 42.8515 13.8038 42.3888 13.8038 41.818C13.8038 41.2472 13.2711 40.7846 12.6138 40.7846H1.19002C0.532891 40.7846 0 41.2472 0 41.818C0 42.3888 0.532742 42.8515 1.19002 42.8515H5.0773V45.125C5.0773 46.3027 6.18049 47.2607 7.53662 47.2607H13.9646C13.9643 47.2837 13.9625 47.3065 13.9625 47.3295C13.9625 50.9384 17.3434 53.8744 21.4989 53.8744C25.6545 53.8744 29.0354 50.9384 29.0354 47.3295C29.0354 47.3063 29.0336 47.2837 29.0333 47.2607H55.8515C55.8512 47.2837 55.8495 47.3065 55.8495 47.3295C55.8495 50.9384 59.2304 53.8744 63.3859 53.8744C67.5414 53.8744 70.9224 50.9384 70.9224 47.3295C70.9224 47.3063 70.9206 47.2837 70.9203 47.2607H74.8098C75.467 47.2607 75.9998 46.7981 75.9998 46.2273V35.2044C76 32.4829 73.6878 30.2218 70.6797 29.8241ZM55.6911 18.6012H64.6555C66.0991 18.6012 67.2735 19.6211 67.2735 20.8748V20.9436H55.6911V18.6012ZM55.6911 29.7619V23.0104H66.265L68.2087 29.7619H55.6911ZM21.4989 51.8079C18.6556 51.8079 16.3424 49.7991 16.3424 47.3298C16.3424 44.8605 18.6556 42.8517 21.4989 42.8517C24.3423 42.8517 26.6555 44.8605 26.6555 47.3298C26.6555 49.7991 24.3423 51.8079 21.4989 51.8079ZM63.3862 51.8079C60.5429 51.8079 58.2297 49.7991 58.2297 47.3298C58.2297 44.8605 60.5429 42.8517 63.3862 42.8517C66.2295 42.8517 68.5428 44.8605 68.5428 47.3298C68.5428 49.7991 66.2295 51.8079 63.3862 51.8079ZM73.6201 38.5803H72.2714C71.5277 38.5803 70.9227 38.0549 70.9227 37.409V36.2378H73.62V38.5803H73.6201Z" fill="black"/>
<path d="M21.4984 45.1942C20.1423 45.1942 19.0391 46.1522 19.0391 47.3299C19.0391 48.5076 20.1423 49.4657 21.4984 49.4657C22.8545 49.4657 23.9577 48.5076 23.9577 47.3299C23.9577 46.1522 22.8545 45.1942 21.4984 45.1942Z" fill="black"/>
<path d="M63.387 45.1942C62.0309 45.1942 60.9277 46.1522 60.9277 47.3299C60.9277 48.5076 62.0309 49.4657 63.387 49.4657C64.7432 49.4657 65.8464 48.5076 65.8464 47.3299C65.8464 46.1522 64.7432 45.1942 63.387 45.1942Z" fill="black"/>
<path d="M49.4233 40.785H31.6529C30.9958 40.785 30.4629 41.2477 30.4629 41.8185C30.4629 42.3893 30.9956 42.8519 31.6529 42.8519H49.4233C50.0804 42.8519 50.6133 42.3893 50.6133 41.8185C50.6133 41.2477 50.0805 40.785 49.4233 40.785Z" fill="black"/>
<path d="M18.9608 36.3757H3.72909C3.07195 36.3757 2.53906 36.8384 2.53906 37.4092C2.53906 37.98 3.0718 38.4426 3.72909 38.4426H18.9608C19.618 38.4426 20.1509 37.98 20.1509 37.4092C20.1509 36.8384 19.618 36.3757 18.9608 36.3757Z" fill="black"/>
<path d="M41.3799 22.3485C40.9153 21.945 40.1616 21.945 39.697 22.3486L29.1146 31.5385L23.6095 26.7577C23.1448 26.3541 22.3913 26.3541 21.9267 26.7577C21.4619 27.1613 21.4619 27.8155 21.9267 28.2191L28.2733 33.7307C28.5056 33.9325 28.8102 34.0333 29.1146 34.0333C29.4191 34.0333 29.7238 33.9325 29.956 33.7307L41.3797 23.81C41.8445 23.4063 41.8445 22.7521 41.3799 22.3485Z" fill="black"/>
</svg>
